%YAML 1.1
%TAG !u! tag:unity3d.com,2011:
--- !u!114 &11400000
MonoBehaviour:
  m_ObjectHideFlags: 0
  m_CorrespondingSourceObject: {fileID: 0}
  m_PrefabInstance: {fileID: 0}
  m_PrefabAsset: {fileID: 0}
  m_GameObject: {fileID: 0}
  m_Enabled: 1
  m_EditorHideFlags: 0
  m_Script: {fileID: 11500000, guid: d7fd9488000d3734a9e00ee676215985, type: 3}
  m_Name: Global Volume Profile
  m_EditorClassIdentifier: 
  components:
  - {fileID: 7183302158458883370}
  - {fileID: 7240858577869182716}
  - {fileID: 551498099330631810}
--- !u!114 &551498099330631810
MonoBehaviour:
  m_ObjectHideFlags: 3
  m_CorrespondingSourceObject: {fileID: 0}
  m_PrefabInstance: {fileID: 0}
  m_PrefabAsset: {fileID: 0}
  m_GameObject: {fileID: 0}
  m_Enabled: 1
  m_EditorHideFlags: 0
  m_Script: {fileID: 11500000, guid: 42ef2681fa3dc8c4fa031f044e68c63f, type: 3}
  m_Name: GlobalIllumination
  m_EditorClassIdentifier: 
  active: 1
  quality:
    m_OverrideState: 1
    m_Value: 2
  enable:
    m_OverrideState: 1
    m_Value: 1
  tracing:
    m_OverrideState: 0
    m_Value: 1
  rayMiss:
    m_OverrideState: 0
    m_Value: 3
  depthBufferThickness:
    m_OverrideState: 0
    m_Value: 0.1
  fullResolutionSS:
    m_OverrideState: 0
    m_Value: 1
  m_MaxRaySteps:
    m_OverrideState: 1
    m_Value: 128
  m_DenoiseSS:
    m_OverrideState: 1
    m_Value: 1
  m_HalfResolutionDenoiserSS:
    m_OverrideState: 1
    m_Value: 0
  m_DenoiserRadiusSS:
    m_OverrideState: 1
    m_Value: 0.5
  m_SecondDenoiserPassSS:
    m_OverrideState: 1
    m_Value: 1
  lastBounceFallbackHierarchy:
    m_OverrideState: 0
    m_Value: 3
  layerMask:
    m_OverrideState: 0
    m_Value:
      serializedVersion: 2
      m_Bits: 4294967295
  textureLodBias:
    m_OverrideState: 0
    m_Value: 7
  m_RayLength:
    m_OverrideState: 0
    m_Value: 50
  m_ClampValue:
    m_OverrideState: 0
    m_Value: 1
  mode:
    m_OverrideState: 0
    m_Value: 2
  m_FullResolution:
    m_OverrideState: 0
    m_Value: 0
  sampleCount:
    m_OverrideState: 0
    m_Value: 2
  bounceCount:
    m_OverrideState: 0
    m_Value: 1
  m_Denoise:
    m_OverrideState: 0
    m_Value: 1
  m_HalfResolutionDenoiser:
    m_OverrideState: 0
    m_Value: 0
  m_DenoiserRadius:
    m_OverrideState: 0
    m_Value: 0.6
  m_SecondDenoiserPass:
    m_OverrideState: 0
    m_Value: 1
  m_MaxMixedRaySteps:
    m_OverrideState: 0
    m_Value: 48
  receiverMotionRejection:
    m_OverrideState: 0
    m_Value: 1
--- !u!114 &7183302158458883370
MonoBehaviour:
  m_ObjectHideFlags: 3
  m_CorrespondingSourceObject: {fileID: 0}
  m_PrefabInstance: {fileID: 0}
  m_PrefabAsset: {fileID: 0}
  m_GameObject: {fileID: 0}
  m_Enabled: 1
  m_EditorHideFlags: 0
  m_Script: {fileID: 11500000, guid: 2d08ce26990eb1a4a9177b860541e702, type: 3}
  m_Name: Exposure
  m_EditorClassIdentifier: 
  active: 1
  mode:
    m_OverrideState: 1
    m_Value: 0
  meteringMode:
    m_OverrideState: 0
    m_Value: 2
  luminanceSource:
    m_OverrideState: 0
    m_Value: 1
  fixedExposure:
    m_OverrideState: 1
    m_Value: 11.262059
  compensation:
    m_OverrideState: 0
    m_Value: 0
  limitMin:
    m_OverrideState: 0
    m_Value: -1
  limitMax:
    m_OverrideState: 0
    m_Value: 14
  curveMap:
    m_OverrideState: 0
    m_Value:
      serializedVersion: 2
      m_Curve:
      - serializedVersion: 3
        time: -10
        value: -10
        inSlope: 0
        outSlope: 1
        tangentMode: 0
        weightedMode: 0
        inWeight: 0
        outWeight: 0
      - serializedVersion: 3
        time: 20
        value: 20
        inSlope: 1
        outSlope: 0
        tangentMode: 0
        weightedMode: 0
        inWeight: 0
        outWeight: 0
      m_PreInfinity: 2
      m_PostInfinity: 2
      m_RotationOrder: 4
  limitMinCurveMap:
    m_OverrideState: 0
    m_Value:
      serializedVersion: 2
      m_Curve:
      - serializedVersion: 3
        time: -10
        value: -12
        inSlope: 0
        outSlope: 1
        tangentMode: 0
        weightedMode: 0
        inWeight: 0
        outWeight: 0
      - serializedVersion: 3
        time: 20
        value: 18
        inSlope: 1
        outSlope: 0
        tangentMode: 0
        weightedMode: 0
        inWeight: 0
        outWeight: 0
      m_PreInfinity: 2
      m_PostInfinity: 2
      m_RotationOrder: 4
  limitMaxCurveMap:
    m_OverrideState: 0
    m_Value:
      serializedVersion: 2
      m_Curve:
      - serializedVersion: 3
        time: -10
        value: -8
        inSlope: 0
        outSlope: 1
        tangentMode: 0
        weightedMode: 0
        inWeight: 0
        outWeight: 0
      - serializedVersion: 3
        time: 20
        value: 22
        inSlope: 1
        outSlope: 0
        tangentMode: 0
        weightedMode: 0
        inWeight: 0
        outWeight: 0
      m_PreInfinity: 2
      m_PostInfinity: 2
      m_RotationOrder: 4
  adaptationMode:
    m_OverrideState: 0
    m_Value: 1
  adaptationSpeedDarkToLight:
    m_OverrideState: 0
    m_Value: 3
  adaptationSpeedLightToDark:
    m_OverrideState: 0
    m_Value: 1
  weightTextureMask:
    m_OverrideState: 0
    m_Value: {fileID: 0}
  histogramPercentages:
    m_OverrideState: 0
    m_Value: {x: 40, y: 90}
  histogramUseCurveRemapping:
    m_OverrideState: 0
    m_Value: 0
  targetMidGray:
    m_OverrideState: 0
    m_Value: 0
  centerAroundExposureTarget:
    m_OverrideState: 0
    m_Value: 0
  proceduralCenter:
    m_OverrideState: 0
    m_Value: {x: 0.5, y: 0.5}
  proceduralRadii:
    m_OverrideState: 0
    m_Value: {x: 0.3, y: 0.3}
  maskMinIntensity:
    m_OverrideState: 0
    m_Value: -30
  maskMaxIntensity:
    m_OverrideState: 0
    m_Value: 30
  proceduralSoftness:
    m_OverrideState: 0
    m_Value: 0.5
--- !u!114 &7240858577869182716
MonoBehaviour:
  m_ObjectHideFlags: 3
  m_CorrespondingSourceObject: {fileID: 0}
  m_PrefabInstance: {fileID: 0}
  m_PrefabAsset: {fileID: 0}
  m_GameObject: {fileID: 0}
  m_Enabled: 1
  m_EditorHideFlags: 0
  m_Script: {fileID: 11500000, guid: 0d7593b3a9277ac4696b20006c21dde2, type: 3}
  m_Name: VisualEnvironment
  m_EditorClassIdentifier: 
  active: 1
  skyType:
    m_OverrideState: 1
    m_Value: 3
  cloudType:
    m_OverrideState: 0
    m_Value: 0
  skyAmbientMode:
    m_OverrideState: 0
    m_Value: 1
  windOrientation:
    m_OverrideState: 0
    m_Value: 0
  windSpeed:
    m_OverrideState: 0
    m_Value: 100
  fogType:
    m_OverrideState: 0
    m_Value: 0
